<?xml version="1.0" encoding="UTF-8"?>
<!DOCTYPE svg PUBLIC "-//W3C//DTD SVG 1.1//EN" "http://www.w3.org/Graphics/SVG/1.1/DTD/svg11.dtd">
<!-- Creator: CorelDRAW Home & Student 2018 -->
<svg xmlns="http://www.w3.org/2000/svg" xml:space="preserve" width="12px" height="16px" version="1.1" style="shape-rendering:geometricPrecision; text-rendering:geometricPrecision; image-rendering:optimizeQuality; fill-rule:evenodd; clip-rule:evenodd"
viewBox="0 0 0.97 1.28"
 xmlns:xlink="http://www.w3.org/1999/xlink">
 <defs>
  <style type="text/css">
   <![CDATA[
    .fil0 {fill:#212529}
   ]]>
  </style>
 </defs>
 <g id="Capa_x0020_1">
  <metadata id="CorelCorpID_0Corel-Layer"/>
  <g id="_642451488">
   <g>
    <path class="fil0" d="M0.42 0.55c-0.03,-0.06 -0.1,-0.19 -0.15,-0.22 -0.05,-0.02 -0.23,-0.05 -0.26,0.08 -0.01,0.05 -0.01,0.3 0.01,0.34 0.01,0.05 0.05,0.08 0.09,0.1 0.14,0.13 0.13,0.1 0.15,0.21 0.01,0.04 0.02,0.12 0.03,0.16 0.01,0.04 0.06,0.07 0.12,0.04 0.04,-0.02 0.04,-0.08 0.03,-0.13 -0.02,-0.12 -0.01,-0.2 -0.09,-0.28 -0.02,-0.01 -0.1,-0.07 -0.1,-0.09 -0.01,-0.03 -0.01,-0.14 -0.01,-0.18l0.02 0.02c0.04,0.06 0.04,0.11 0.12,0.12 0.09,0 0.18,0 0.27,0 0.33,0 0.32,0.03 0.32,-0.22 0,-0.29 0.03,-0.27 -0.27,-0.27 -0.25,0 -0.22,-0.02 -0.22,0.32l-0.06 0z"/>
    <path class="fil0" d="M0 0.87c0,0.1 0,0.19 0,0.29 0,0.16 0.12,0.12 0.14,0.09 0.04,-0.03 0.03,-0.23 0.02,-0.25 -0.02,-0.01 -0.14,-0.12 -0.16,-0.13z"/>
    <path class="fil0" d="M0.18 0c-0.16,0.03 -0.1,0.26 0.05,0.23 0.15,-0.03 0.11,-0.26 -0.05,-0.23z"/>
   </g>
  </g>
 </g>
</svg>
